---
source: tests/delete.rs
expression: "String::from_utf8_lossy(&output.stdout)"
---
DELETED adc1f6e0aaa71ef83e60bff6c5e8e0606c127fb3234792a7ba416d88c4017517
DELETED 7d5a6c6098220881d18ad7c76fbc9106b454409ecf03a2bf721074427c167daa
Processed 2 files (2 succeeded 0 failed)

