---
source: tests/delete.rs
expression: "String::from_utf8_lossy(&output.stdout)"
---
DELETED adc1f6e0aaa71ef83e60bff6c5e8e0606c127fb3234792a7ba416d88c4017517
Processed 1 file (1 succeeded 0 failed)

