---
source: tests/insert.rs
expression: "String::from_utf8_lossy(&output.stdout)"
---
Reading test/file/doesnt/exist... data
FAILED
   0: [91mFailed to open source file[0m
   1: [91mNo such file or directory (os error 2)[0m

Processed 1 file (0 succeeded 1 failed)

