---
source: tests/name.rs
expression: output
---
hash                 size       filetype
2ef11bb5c0332e608027 41 B       tbfs::internal::name::short     
38267ba9df303a016edc 116 B      tbfs::internal::name::short     
43bc8e27f5d6d5b014cb 41 B       tbfs::internal::name::short     
7d5a6c6098220881d18a 30 B       some::other::filetype           Another name for file #2; File #2
993093d1dc329577f5d2 108 B      tbfs::internal::name::short     
a22a379d5158bcee1d75 58 B       tbfs::internal::name::short     
adc1f6e0aaa71ef83e60 13 B       text::plain                     File #1
c3c22da74ea5e6f12282 38 B       text::plain                     Multi-line name for File #3; Another multi-line name for File #3
8 items listed totaling 445 B (1024 KiB on disk)

