---
source: tests/name.rs
expression: output
---
==> c3c22da74ea5e6f1228245e1a3c4eab01c74af76489f66f59180ba97f20cf834 text::plain
 :: 38267ba9df303a016edc9bcb95c7e869de750fe988749af57a51077cde276096 tbfs::internal::name::short
    Another multi-line name for File #3
    Line #2 of the name of file #3
    This is line #3
 :: 993093d1dc329577f5d206a1ec8c45414d7f9359d6890a7aac9eb5e3feb84195 tbfs::internal::name::short
    Multi-line name for File #3
    Line #2 of the name of file #3
    This is line #3
Processed 1 file (1 succeeded 0 failed) and 2 names

