---
source: tests/tag.rs
expression: "String::from_utf8_lossy(&output.stdout)"
---
NEW adc1f6e0aaa71ef83e60bff6c5e8e0606c127fb3234792a7ba416d88c4017517 <-- 6382aef2148d048ae5429641ec26170e2f9d94a4b3174e6dd088809a01c3e85c
NEW 7d5a6c6098220881d18ad7c76fbc9106b454409ecf03a2bf721074427c167daa <-- 48f00c4d0c6f07b29d922ca94ece589bbb21b590d3f556f96920f2c6a1da9140
Processed 2 files (2 succeeded 0 failed)

