---
source: tests/tag.rs
expression: "String::from_utf8_lossy(&output.stdout)"
---
hash                 size       filetype
153387705b72c34726f3 112 B      tbfs::internal::tag::simple     
7d5a6c6098220881d18a 30 B       some::other::filetype           
adc1f6e0aaa71ef83e60 13 B       text::plain                     
c3c22da74ea5e6f12282 38 B       text::plain                     
f2a29776e34eacc11dc4 112 B      tbfs::internal::tag::simple     
5 items listed totaling 305 B (1024 KiB on disk)

