---
source: tests/tag.rs
expression: "String::from_utf8_lossy(&output.stdout)"
---
NEW adc1f6e0aaa71ef83e60bff6c5e8e0606c127fb3234792a7ba416d88c4017517 <-- 82900a08137379fb9f807f1db86f25cf438943069654e644fdc7f8a155bc2fe9
Processed 1 files (1 succeeded 0 failed)

