---
source: tests/tag.rs
expression: "String::from_utf8_lossy(&output.stdout)"
---
hash                  size  filetype
7d5a6c6098220881d18a  30 B  some::other::filetype
adc1f6e0aaa71ef83e60  13 B  text::plain
c3c22da74ea5e6f12282  38 B  text::plain

