---
source: src/file.rs
expression: "(specifier, m.format(specifier))"
---
- full_hash: true
  show_size: false
  human_size: false
  show_filetype: false
- efffdf6aa3349327681be4007b989e4135e1ddef472bd3db97706bbe2202d5e0

